<?xml version="1.0" encoding="utf-8"?>
<!-- Generator: Adobe Illustrator 21.1.0, SVG Export Plug-In . SVG Version: 6.00 Build 0)  -->
<svg version="1.1" id="Layer_1" xmlns="http://www.w3.org/2000/svg" xmlns:xlink="http://www.w3.org/1999/xlink" x="0px" y="0px"
	 viewBox="0 0 625 105" style="enable-background:new 0 0 625 105;" xml:space="preserve">
<style type="text/css">
	.st0{fill:#FFFFFF;}
</style>
<g>
	<path class="st0" d="M0.6,28.9h11.5v9.9C18,31,24.6,27.4,32.7,27.4c2,0,4.1,0.5,5.9,1.4v8.6h-4.9c-13,0-21.6,8.5-21.6,21.3v42H0.6
		V28.9z"/>
	<path class="st0" d="M40.9,64.9c0-22.5,14.4-37.4,36.2-37.4s36.1,15.4,36.1,38.6l-1.1,1.1H52.6c0.6,15,10.4,25,24.5,25
		c10.6,0,19.9-6.3,23-15.8h11.5c-4.4,15.4-18.5,26-34.6,25.9C55.3,102.3,40.9,87.3,40.9,64.9z M100.9,57
		C98.2,44.5,89.5,37.5,77,37.5S55.8,44.5,53.1,57H100.9z"/>
	<path class="st0" d="M123.6,64.9c0-22.5,14.2-37.4,35.7-37.4c10.4,0.2,20.1,5.2,26.2,13.7v-39H197v98.8h-11.5V88.6
		c-6.1,8.4-15.8,13.5-26.2,13.7C137.8,102.3,123.6,87.3,123.6,64.9z M185.5,64.9c0-16.4-10.1-27.3-25-27.3
		c-15.3,0-25.3,10.9-25.3,27.3s10.1,27.4,25.3,27.4C175.4,92.2,185.5,81.2,185.5,64.9L185.5,64.9z"/>
	<path class="st0" d="M212.3,28.9h17.3v8.5c3.7-5.9,10.8-9.9,17.4-9.9c2.6,0,5.2,0.5,7.6,1.4V42h-5.9c-11.5,0-19.1,6.5-19.1,16.1
		v42.6h-17.3V28.9z"/>
	<path class="st0" d="M255.2,64.9c0-22.8,15.5-38,39-38s39,15.3,39,38s-15.5,38-39,38S255.2,87.6,255.2,64.9z M315.9,64.9
		c0-13.7-8.6-22.8-21.7-22.8s-21.7,9.1-21.7,22.8s8.6,22.8,21.7,22.8S315.9,78.6,315.9,64.9z"/>
	<path class="st0" d="M340.7,64.9c0-22.8,15.5-38,39-38c19.4,0,34.4,12.2,37.6,30.5h-16.5c-2.3-9.2-10.7-15.3-21-15.3
		c-13.1,0-21.7,9.1-21.7,22.8s8.6,22.7,21.7,22.7c10.5,0,19-6.3,21.2-16h16.6c-3,18.7-18.1,31.2-37.7,31.2
		C356.3,102.8,340.7,87.6,340.7,64.9z"/>
	<path class="st0" d="M427.8,2h17.3v51.3l24.3-24.5h24.2l-30.5,29.9l34,42h-22.2l-24.2-29.8l-5.6,5.6v24.3h-17.3L427.8,2L427.8,2z"
		/>
	<path class="st0" d="M496.8,64.9c0-22.8,15.5-38,39-38s39,15.3,39,38v3.3l-1.4,1.4h-59c1.6,11.3,10.2,18.9,21.5,18.9
		c8.5,0,16.4-4.9,19.7-12.1h17.6c-4.8,15.8-19.7,26.5-37.3,26.5C512.3,102.8,496.8,87.6,496.8,64.9z M556.1,55.3
		c-3.3-8.9-10.7-14-20.3-14s-17,5-20.3,14H556.1z"/>
	<path class="st0" d="M588.4,82.4V43.3h-11.5V28.9h11.5V2h17.2v26.8h18.2v14.4h-18.2v39.2c0,3.6,2.6,6.1,6.3,6.1h12.5v12.4
		c-2.6,1.1-7.5,2-12.2,2C597.8,102.8,588.4,94.6,588.4,82.4z"/>
</g>
</svg>
