<?xml version="1.0" encoding="utf-8"?>
<!-- Generator: Adobe Illustrator 16.0.0, SVG Export Plug-In . SVG Version: 6.00 Build 0)  -->
<!DOCTYPE svg PUBLIC "-//W3C//DTD SVG 1.1//EN" "http://www.w3.org/Graphics/SVG/1.1/DTD/svg11.dtd">
<svg version="1.1" id="Layer_1" xmlns="http://www.w3.org/2000/svg" xmlns:xlink="http://www.w3.org/1999/xlink" x="0px" y="0px"
	 width="40px" height="40px" viewBox="0 0 40 40" enable-background="new 0 0 40 40" xml:space="preserve">
<path fill="#FFFFFF" d="M19.3,15.732c0.32,0.447,0.481,0.981,0.481,1.604c0,0.641-0.161,1.157-0.485,1.547
	c-0.183,0.218-0.449,0.418-0.803,0.598c0.536,0.196,0.94,0.505,1.215,0.928c0.272,0.422,0.409,0.936,0.409,1.54
	c0,0.623-0.155,1.182-0.469,1.676c-0.198,0.327-0.446,0.604-0.744,0.827c-0.335,0.257-0.729,0.433-1.187,0.528
	c-0.457,0.095-0.951,0.142-1.485,0.142h-4.736V14.612h5.079C17.857,14.631,18.765,15.004,19.3,15.732z M13.592,16.438v2.319h2.556
	c0.455,0,0.826-0.087,1.112-0.261c0.283-0.174,0.427-0.482,0.427-0.922c0-0.491-0.188-0.813-0.564-0.971
	c-0.325-0.109-0.739-0.164-1.242-0.164H13.592z M13.592,20.496v2.803h2.552c0.456,0,0.812-0.062,1.064-0.185
	c0.462-0.23,0.691-0.667,0.691-1.312c0-0.548-0.222-0.923-0.669-1.128c-0.25-0.114-0.601-0.174-1.051-0.178H13.592z M26.472,17.509
	c0.543,0.242,0.99,0.626,1.342,1.15c0.321,0.461,0.527,0.998,0.621,1.606c0.055,0.357,0.077,0.872,0.067,1.543H22.84
	c0.033,0.78,0.302,1.327,0.813,1.64c0.311,0.195,0.684,0.292,1.121,0.292c0.461,0,0.838-0.119,1.127-0.356
	c0.159-0.128,0.299-0.307,0.419-0.535h2.075c-0.055,0.46-0.307,0.929-0.753,1.406c-0.696,0.755-1.671,1.133-2.924,1.133
	c-1.035,0-1.948-0.318-2.737-0.956c-0.793-0.637-1.187-1.675-1.187-3.111c0-1.348,0.356-2.38,1.069-3.099
	c0.715-0.717,1.641-1.078,2.779-1.078C25.32,17.144,25.93,17.266,26.472,17.509z M23.432,19.264
	c-0.287,0.296-0.468,0.698-0.542,1.203h3.503c-0.037-0.54-0.219-0.948-0.541-1.229c-0.326-0.279-0.728-0.418-1.207-0.418
	C24.124,18.82,23.719,18.968,23.432,19.264z M26.868,15.103h-4.504v1.308h4.504V15.103z"/>
</svg>
